[
  {
    "id": "618",
    "lat": "-43.4387110216605",
    "lon": "172.634696960449",
    "rating": "2"
  },
  {
    "id": "619",
    "lat": "-41.2806526203082",
    "lon": "173.249936699867",
    "rating": "3"
  },
  {
    "id": "1140",
    "lat": "-34.9354116297535",
    "lon": "138.607034683228",
    "rating": "0"
  },
  {
    "id": "1263",
    "lat": "-40.9106991197104",
    "lon": "175.016777515411",
    "rating": "1"
  },
  {
    "id": "4123",
    "lat": "-34.8073992888744",
    "lon": "148.881804943085",
    "rating": "2"
  },
  {
    "id": "1706",
    "lat": "-36.8453407931351",
    "lon": "174.753427505493",
    "rating": "2"
  },
  {
    "id": "1944",
    "lat": "-42.8917576338897",
    "lon": "147.320410609245",
    "rating": "1"
  },
  {
    "id": "2464",
    "lat": "-43.5205163070838",
    "lon": "172.534189224243",
    "rating": "2"
  },
  {
    "id": "2469",
    "lat": "-43.5203140325239",
    "lon": "172.533502578735",
    "rating": "0"
  },
  {
    "id": "2466",
    "lat": "-43.3164979884188",
    "lon": "172.668085098267",
    "rating": "2"
  },
  {
    "id": "2541",
    "lat": "-27.4885432295895",
    "lon": "153.032877445221",
    "rating": "2"
  },
  {
    "id": "2542",
    "lat": "-27.4630474300069",
    "lon": "153.01109790802",
    "rating": "2"
  },
  {
    "id": "2543",
    "lat": "-27.433184575621",
    "lon": "153.082391023636",
    "rating": "1"
  },
  {
    "id": "2544",
    "lat": "-28.6379447432878",
    "lon": "153.581528663635",
    "rating": "1"
  },
  {
    "id": "2545",
    "lat": "-28.669334096666",
    "lon": "153.612438440323",
    "rating": "1"
  },
  {
    "id": "2546",
    "lat": "-32.9547005371067",
    "lon": "151.708874702454",
    "rating": "3"
  },
  {
    "id": "2547",
    "lat": "-36.9290367874145",
    "lon": "149.874801635742",
    "rating": "2"
  },
  {
    "id": "2840",
    "lat": "-28.0097852640619",
    "lon": "153.344678878784",
    "rating": "4"
  },
  {
    "id": "2841",
    "lat": "-29.7057788024866",
    "lon": "152.948312759399",
    "rating": "1"
  },
  {
    "id": "3564",
    "lat": "-28.1247250646525",
    "lon": "153.465217351913",
    "rating": "3"
  },
  {
    "id": "3323",
    "lat": "-38.0718623859781",
    "lon": "145.488461852074",
    "rating": "3"
  },
  {
    "id": "3324",
    "lat": "-38.0718539398308",
    "lon": "145.488536953926",
    "rating": "3"
  },
  {
    "id": "3325",
    "lat": "-42.8962260998642",
    "lon": "147.317610383034",
    "rating": "1"
  },
  {
    "id": "3326",
    "lat": "-42.8775286993054",
    "lon": "147.329511344433",
    "rating": "3"
  },
  {
    "id": "3327",
    "lat": "-42.7371628838629",
    "lon": "147.229145765305",
    "rating": "1"
  },
  {
    "id": "3328",
    "lat": "-42.7495707624888",
    "lon": "147.223979830742",
    "rating": "1"
  },
  {
    "id": "3329",
    "lat": "-42.8547634429018",
    "lon": "147.391821742058",
    "rating": "3"
  },
  {
    "id": "4122",
    "lat": "-37.4762204122505",
    "lon": "149.593105316162",
    "rating": "2"
  },
  {
    "id": "4113",
    "lat": "-34.4992048235848",
    "lon": "150.790920853615",
    "rating": "3"
  },
  {
    "id": "4114",
    "lat": "-34.9002265674401",
    "lon": "150.601910948753",
    "rating": "1"
  },
  {
    "id": "4115",
    "lat": "-35.3120522782496",
    "lon": "150.432379245758",
    "rating": "2"
  },
  {
    "id": "4116",
    "lat": "-35.7202675049709",
    "lon": "150.175691843033",
    "rating": "4"
  },
  {
    "id": "4117",
    "lat": "-35.7202675049709",
    "lon": "150.175734758377",
    "rating": "4"
  },
  {
    "id": "4118",
    "lat": "-37.5915533751329",
    "lon": "144.942004680634",
    "rating": "2"
  },
  {
    "id": "4119",
    "lat": "-36.7141185646606",
    "lon": "145.634679794312",
    "rating": "1"
  },
  {
    "id": "4476",
    "lat": "-29.9358952133724",
    "lon": "135.142822265625",
    "rating": "2"
  },
  {
    "id": "4477",
    "lat": "-24.726874870507",
    "lon": "133.165283203125",
    "rating": "2"
  },
  {
    "id": "4478",
    "lat": "-12.4697658181712",
    "lon": "130.97900390625",
    "rating": "1"
  },
  {
    "id": "4479",
    "lat": "-12.4270212622129",
    "lon": "130.908794403076",
    "rating": "2"
  },
  {
    "id": "4480",
    "lat": "-12.4384204985993",
    "lon": "130.850601196289",
    "rating": "2"
  },
  {
    "id": "4481",
    "lat": "-12.3946648263572",
    "lon": "130.879611968994",
    "rating": "2"
  },
  {
    "id": "4542",
    "lat": "-32.5387275667745",
    "lon": "115.744625329971",
    "rating": "2"
  },
  {
    "id": "4543",
    "lat": "-32.1495232823065",
    "lon": "116.024830341339",
    "rating": "1"
  },
  {
    "id": "4544",
    "lat": "-20.7952155252898",
    "lon": "116.778273582458",
    "rating": "3"
  },
  {
    "id": "4545",
    "lat": "-20.3752954798039",
    "lon": "118.634115457535",
    "rating": "2"
  },
  {
    "id": "4647",
    "lat": "-34.357767875683",
    "lon": "116.161022186279",
    "rating": "2"
  },
  {
    "id": "4547",
    "lat": "-34.2319222890223",
    "lon": "116.149907112122",
    "rating": "2"
  },
  {
    "id": "4548",
    "lat": "-34.2407122485557",
    "lon": "116.148995161057",
    "rating": "3"
  },
  {
    "id": "4569",
    "lat": "-33.0799679495597",
    "lon": "115.90690433979",
    "rating": "2"
  },
  {
    "id": "4550",
    "lat": "-28.6421631752602",
    "lon": "153.612062931061",
    "rating": "1"
  },
  {
    "id": "4568",
    "lat": "-41.451106148129",
    "lon": "147.139790654182",
    "rating": "1"
  },
  {
    "id": "4570",
    "lat": "-33.9386380819804",
    "lon": "115.077726244926",
    "rating": "1"
  },
  {
    "id": "4648",
    "lat": "-34.4525723512559",
    "lon": "116.237325668335",
    "rating": "4"
  },
  {
    "id": "4649",
    "lat": "-34.9585580645907",
    "lon": "117.357330322266",
    "rating": "1"
  },
  {
    "id": "4810",
    "lat": "-33.356986254162",
    "lon": "115.670156478882",
    "rating": "1"
  },
  {
    "id": "4652",
    "lat": "-34.9758344816352",
    "lon": "116.732649207115",
    "rating": "2"
  },
  {
    "id": "4671",
    "lat": "-34.9851083189366",
    "lon": "117.852272987366",
    "rating": "1"
  },
  {
    "id": "4717",
    "lat": "-22.0048115993567",
    "lon": "166.219024658203",
    "rating": "1"
  },
  {
    "id": "4736",
    "lat": "-31.7707184231379",
    "lon": "116.030216217041",
    "rating": "2"
  },
  {
    "id": "4799",
    "lat": "-17.9296608388876",
    "lon": "122.240238189697",
    "rating": "1"
  },
  {
    "id": "4800",
    "lat": "-17.8440961772422",
    "lon": "122.503051757812",
    "rating": "3"
  },
  {
    "id": "4802",
    "lat": "-15.8686770917384",
    "lon": "128.371725082397",
    "rating": "1"
  },
  {
    "id": "4803",
    "lat": "-15.7813512661687",
    "lon": "128.739337921143",
    "rating": "5"
  },
  {
    "id": "4809",
    "lat": "-20.3758486444124",
    "lon": "118.634233474731",
    "rating": "2"
  },
  {
    "id": "4811",
    "lat": "-33.6630410148854",
    "lon": "115.359996557236",
    "rating": "1"
  },
  {
    "id": "4863",
    "lat": "-33.7179502912027",
    "lon": "151.109926700592",
    "rating": "1"
  },
  {
    "id": "4885",
    "lat": "-27.5779626419109",
    "lon": "153.106284141541",
    "rating": "1"
  },
  {
    "id": "4915",
    "lat": "-32.1828770690316",
    "lon": "121.784176826477",
    "rating": "2"
  },
  {
    "id": "4913",
    "lat": "-33.831723126992",
    "lon": "121.896014213562",
    "rating": "2"
  },
  {
    "id": "4914",
    "lat": "-35.0008590401791",
    "lon": "117.868076562881",
    "rating": "2"
  },
  {
    "id": "5005",
    "lat": "-33.9364480879129",
    "lon": "120.132751464844",
    "rating": "2"
  },
  {
    "id": "5006",
    "lat": "-33.5779766001623",
    "lon": "120.025634765625",
    "rating": "2"
  },
  {
    "id": "5204",
    "lat": "-41.8720215154395",
    "lon": "148.296332359314",
    "rating": "1"
  },
  {
    "id": "6388",
    "lat": "-30.8036717424535",
    "lon": "121.490678787231",
    "rating": "2"
  },
  {
    "id": "6387",
    "lat": "-30.7889630177055",
    "lon": "121.495699882507",
    "rating": "3"
  },
  {
    "id": "6386",
    "lat": "-30.783543446572",
    "lon": "121.429309844971",
    "rating": "2"
  },
  {
    "id": "6385",
    "lat": "-30.7730721176484",
    "lon": "121.443085670471",
    "rating": "2"
  },
  {
    "id": "6384",
    "lat": "-30.7545232700376",
    "lon": "121.465229988098",
    "rating": "3"
  },
  {
    "id": "6383",
    "lat": "-30.7430897945678",
    "lon": "121.477031707764",
    "rating": "2"
  },
  {
    "id": "6380",
    "lat": "-31.9020803775448",
    "lon": "116.102356910706",
    "rating": "2"
  },
  {
    "id": "6190",
    "lat": "-28.5466985358149",
    "lon": "153.489174842834",
    "rating": "2"
  },
  {
    "id": "6191",
    "lat": "-28.5606647320775",
    "lon": "153.493552207947",
    "rating": "2"
  },
  {
    "id": "6189",
    "lat": "-28.5530221915579",
    "lon": "153.503369092941",
    "rating": "1"
  },
  {
    "id": "5935",
    "lat": "-44.6717201229552",
    "lon": "167.926057577133",
    "rating": "2"
  },
  {
    "id": "5933",
    "lat": "-44.7007060155978",
    "lon": "169.129693508148",
    "rating": "2"
  },
  {
    "id": "6893",
    "lat": "-36.8590310994155",
    "lon": "174.763426780701",
    "rating": "1"
  },
  {
    "id": "6895",
    "lat": "-38.6956648871612",
    "lon": "176.079339981079",
    "rating": "1"
  },
  {
    "id": "6896",
    "lat": "-36.7881728926775",
    "lon": "174.752193689346",
    "rating": "2"
  },
  {
    "id": "6897",
    "lat": "-36.7503662984276",
    "lon": "174.725114107132",
    "rating": "2"
  },
  {
    "id": "6898",
    "lat": "-37.9660289345764",
    "lon": "177.04158782959",
    "rating": "1"
  },
  {
    "id": "6899",
    "lat": "-38.0173024698096",
    "lon": "177.288265228271",
    "rating": "1"
  },
  {
    "id": "6900",
    "lat": "-38.6489325237169",
    "lon": "177.964653968811",
    "rating": "2"
  },
  {
    "id": "6901",
    "lat": "-38.6496632460926",
    "lon": "177.964696884155",
    "rating": "3"
  },
  {
    "id": "6902",
    "lat": "-38.6623320466493",
    "lon": "178.106210231781",
    "rating": "0"
  },
  {
    "id": "6903",
    "lat": "-39.4748589235325",
    "lon": "176.877082586288",
    "rating": "3"
  },
  {
    "id": "6904",
    "lat": "-40.2219823215083",
    "lon": "175.422649383545",
    "rating": "1"
  },
  {
    "id": "7021",
    "lat": "-24.874471677101",
    "lon": "113.65117205464",
    "rating": "2"
  },
  {
    "id": "7022",
    "lat": "-24.898554969673",
    "lon": "113.70908631103",
    "rating": "1"
  },
  {
    "id": "7030",
    "lat": "-23.729036494328",
    "lon": "133.86431850244",
    "rating": "2"
  },
  {
    "id": "7031",
    "lat": "-23.789829109529",
    "lon": "133.8789311772",
    "rating": "2"
  },
  {
    "id": "7032",
    "lat": "-28.670810395388",
    "lon": "114.62175807953",
    "rating": "1"
  },
  {
    "id": "7146",
    "lat": "-43.512840777705",
    "lon": "172.50819110168",
    "rating": "2"
  },
  {
    "id": "7147",
    "lat": "-43.23369347863",
    "lon": "171.7228617597",
    "rating": "4"
  },
  {
    "id": "7148",
    "lat": "-42.933890313697",
    "lon": "171.55955278163",
    "rating": "2"
  },
  {
    "id": "7149",
    "lat": "-42.595072477199",
    "lon": "171.1095424816",
    "rating": "3"
  },
  {
    "id": "7150",
    "lat": "-43.88750080126",
    "lon": "169.04895149924",
    "rating": "2"
  },
  {
    "id": "7151",
    "lat": "-45.241278939292",
    "lon": "169.40744482757",
    "rating": "2"
  },
  {
    "id": "7152",
    "lat": "-42.590353189986",
    "lon": "172.77714156417",
    "rating": "4"
  },
  {
    "id": "7153",
    "lat": "-42.776066041202",
    "lon": "172.84639620084",
    "rating": "2"
  },
  {
    "id": "7154",
    "lat": "-42.373673376044",
    "lon": "173.67940583137",
    "rating": "3"
  },
  {
    "id": "7390",
    "lat": "-34.064172849812",
    "lon": "150.78594255369",
    "rating": "2"
  },
  {
    "id": "7391",
    "lat": "-34.282754042639",
    "lon": "150.63894677005",
    "rating": "1"
  },
  {
    "id": "7454",
    "lat": "-40.865482669596",
    "lon": "172.81167297305",
    "rating": "2"
  },
  {
    "id": "7461",
    "lat": "-31.862209288285",
    "lon": "116.01494773673",
    "rating": "2"
  },
  {
    "id": "7481",
    "lat": "-41.385051949741",
    "lon": "146.31591796875",
    "rating": "1"
  },
  {
    "id": "7482",
    "lat": "-41.639901988052",
    "lon": "147.9650366305",
    "rating": "4"
  },
  {
    "id": "7483",
    "lat": "-41.940674837808",
    "lon": "148.22003960596",
    "rating": "2"
  },
  {
    "id": "7484",
    "lat": "-42.120397210883",
    "lon": "148.06865572915",
    "rating": "2"
  },
  {
    "id": "7485",
    "lat": "-42.836167556028",
    "lon": "147.45947241759",
    "rating": "3"
  },
  {
    "id": "7486",
    "lat": "-42.86851010102",
    "lon": "147.32021212536",
    "rating": "3"
  },
  {
    "id": "7487",
    "lat": "-42.904670891349",
    "lon": "147.33836531581",
    "rating": "2"
  },
  {
    "id": "7488",
    "lat": "-42.948946822756",
    "lon": "147.34763503011",
    "rating": "2"
  },
  {
    "id": "7489",
    "lat": "-42.977949303548",
    "lon": "147.30214476517",
    "rating": "2"
  },
  {
    "id": "7490",
    "lat": "-42.977949303548",
    "lon": "147.30214476517",
    "rating": "2"
  },
  {
    "id": "7491",
    "lat": "-41.342584134664",
    "lon": "148.26387762947",
    "rating": "1"
  },
  {
    "id": "7531",
    "lat": "-41.436029220124",
    "lon": "173.96441955568",
    "rating": "3"
  },
  {
    "id": "7604",
    "lat": "-33.295277252876",
    "lon": "115.82235049747",
    "rating": "4"
  },
  {
    "id": "7605",
    "lat": "-33.96178501152",
    "lon": "115.0775761559",
    "rating": "1"
  },
  {
    "id": "7935",
    "lat": "-19.239749155823",
    "lon": "146.66357212065",
    "rating": "1"
  },
  {
    "id": "7936",
    "lat": "-19.317850092189",
    "lon": "146.82819538093",
    "rating": "2"
  },
  {
    "id": "7937",
    "lat": "-19.317870341754",
    "lon": "146.8196766851",
    "rating": "3"
  },
  {
    "id": "7938",
    "lat": "-20.323287915442",
    "lon": "148.6500378934",
    "rating": "3"
  },
  {
    "id": "8143",
    "lat": "-21.927398087142",
    "lon": "114.12584576612",
    "rating": "2"
  },
  {
    "id": "8241",
    "lat": "-33.838923541053",
    "lon": "121.88475751431",
    "rating": "2"
  },
  {
    "id": "8242",
    "lat": "-33.334682676222",
    "lon": "115.68529271645",
    "rating": "2"
  },
  {
    "id": "8873",
    "lat": "-14.468172881835",
    "lon": "132.2679233551",
    "rating": "5"
  },
  {
    "id": "8874",
    "lat": "-14.488637456522",
    "lon": "132.25753784179",
    "rating": "5"
  },
  {
    "id": "8875",
    "lat": "-19.440853680622",
    "lon": "134.2084264755",
    "rating": "4"
  },
  {
    "id": "8876",
    "lat": "-32.511984710937",
    "lon": "137.80385226961",
    "rating": "2"
  },
  {
    "id": "8937",
    "lat": "-40.336466697223",
    "lon": "175.59292674063",
    "rating": "2"
  },
  {
    "id": "8993",
    "lat": "-37.08792048196",
    "lon": "174.94000196456",
    "rating": "2"
  },
  {
    "id": "8994",
    "lat": "-38.705598099137",
    "lon": "176.08835220336",
    "rating": "2"
  },
  {
    "id": "9057",
    "lat": "-41.299211807322",
    "lon": "173.99862670896",
    "rating": "1"
  },
  {
    "id": "9058",
    "lat": "-41.513725090021",
    "lon": "173.97276380564",
    "rating": "2"
  },
  {
    "id": "9075",
    "lat": "-42.409954053277",
    "lon": "173.67822036238",
    "rating": "2"
  },
  {
    "id": "9128",
    "lat": "-46.229026401413",
    "lon": "169.76178073882",
    "rating": "2"
  },
  {
    "id": "9129",
    "lat": "-45.851093259093",
    "lon": "170.50853723288",
    "rating": "2"
  },
  {
    "id": "9314",
    "lat": "-40.336528462508",
    "lon": "175.86355590818",
    "rating": "2"
  },
  {
    "id": "9350",
    "lat": "-30.320728915281",
    "lon": "153.08569396789",
    "rating": "0"
  },
  {
    "id": "9398",
    "lat": "-37.671180440115",
    "lon": "144.85403680801",
    "rating": "2"
  },
  {
    "id": "9419",
    "lat": "-37.707993511602",
    "lon": "144.8727478981",
    "rating": "0"
  },
  {
    "id": "9628",
    "lat": "-37.869987568283",
    "lon": "144.75947284699",
    "rating": "4"
  },
  {
    "id": "9629",
    "lat": "-34.732032805243",
    "lon": "138.58215236663",
    "rating": "2"
  },
  {
    "id": "9738",
    "lat": "-31.927775442971",
    "lon": "133.00774955749",
    "rating": "4"
  },
  {
    "id": "9740",
    "lat": "-32.114375878104",
    "lon": "133.67274427414",
    "rating": "3"
  },
  {
    "id": "9741",
    "lat": "-35.43697529",
    "lon": "149.1261305809",
    "rating": "2"
  },
  {
    "id": "9753",
    "lat": "-37.651839786349",
    "lon": "176.20489267271",
    "rating": "1"
  },
  {
    "id": "9802",
    "lat": "-42.83165540056",
    "lon": "147.48888820406",
    "rating": "1"
  },
  {
    "id": "10201",
    "lat": "-35.005323453887",
    "lon": "148.11080932619",
    "rating": "1"
  },
  {
    "id": "10202",
    "lat": "-36.038736381792",
    "lon": "146.97308921816",
    "rating": "1"
  },
  {
    "id": "11577",
    "lat": "-43.74183250879008",
    "lon": "172.03285217283758",
    "rating": "1"
  },
  {
    "id": "11752",
    "lat": "-17.018948119341317",
    "lon": "145.74565351009304",
    "rating": "3"
  },
  {
    "id": "11753",
    "lat": "-17.908646852960324",
    "lon": "146.0912185907472",
    "rating": "4"
  },
  {
    "id": "11754",
    "lat": "-21.166999115690523",
    "lon": "149.1538077592745",
    "rating": "2"
  },
  {
    "id": "11755",
    "lat": "-23.40660488069664",
    "lon": "150.5019879340976",
    "rating": "3"
  },
  {
    "id": "11846",
    "lat": "-25.348500397194435",
    "lon": "152.5919952392464",
    "rating": "2"
  },
  {
    "id": "11847",
    "lat": "-23.33312770323438",
    "lon": "150.51804252993264",
    "rating": "1"
  },
  {
    "id": "11848",
    "lat": "-21.12871046955405",
    "lon": "149.1625726549382",
    "rating": "2"
  },
  {
    "id": "11849",
    "lat": "-20.39226825843104",
    "lon": "148.585552890895",
    "rating": "2"
  },
  {
    "id": "11850",
    "lat": "-20.002767793188397",
    "lon": "148.1933072219657",
    "rating": "2"
  },
  {
    "id": "11851",
    "lat": "-25.19998984174349",
    "lon": "133.2023543170488",
    "rating": "2"
  },
  {
    "id": "11852",
    "lat": "-34.9637428381895",
    "lon": "138.64472999094954",
    "rating": "2"
  },
  {
    "id": "12027",
    "lat": "-36.90007497601061",
    "lon": "174.81543570521603",
    "rating": "2"
  },
  {
    "id": "12461",
    "lat": "-20.01471547058628",
    "lon": "148.2207170101949",
    "rating": "1"
  },
  {
    "id": "12640",
    "lat": "-37.02466779604045",
    "lon": "141.54043579101014",
    "rating": "2"
  },
  {
    "id": "12740",
    "lat": "-41.27971100944512",
    "lon": "173.76712346077755",
    "rating": "3"
  },
  {
    "id": "12797",
    "lat": "-37.73347533823464",
    "lon": "144.66797771714067",
    "rating": "1"
  },
  {
    "id": "12800",
    "lat": "-20.07646392489797",
    "lon": "118.86328125000198",
    "rating": "0"
  },
  {
    "id": "12882",
    "lat": "-11.974734163922642",
    "lon": "142.90136718749332",
    "rating": "0"
  },
  {
    "id": "12948",
    "lat": "-35.36580582255135",
    "lon": "150.47197647353792",
    "rating": "1"
  },
  {
    "id": "13200",
    "lat": "-41.17995768767863",
    "lon": "146.36914621330308",
    "rating": "2"
  },
  {
    "id": "13201",
    "lat": "-42.77798428491882",
    "lon": "147.070709640052",
    "rating": "2"
  },
  {
    "id": "13202",
    "lat": "-42.750592636470806",
    "lon": "147.2263857176276",
    "rating": "3"
  },
  {
    "id": "13203",
    "lat": "-42.82631381424677",
    "lon": "147.28102879586575",
    "rating": "1"
  },
  {
    "id": "13234",
    "lat": "-35.191350165661554",
    "lon": "173.911136627214",
    "rating": "2"
  },
  {
    "id": "13409",
    "lat": "-35.14812293174959",
    "lon": "139.3283900102801",
    "rating": "2"
  },
  {
    "id": "13698",
    "lat": "-41.185577765051306",
    "lon": "146.32008934019987",
    "rating": "3"
  },
  {
    "id": "13699",
    "lat": "-41.05606714910098",
    "lon": "144.6731700897069",
    "rating": "5"
  },
  {
    "id": "13700",
    "lat": "-41.38493493206203",
    "lon": "146.34455108641316",
    "rating": "2"
  },
  {
    "id": "13701",
    "lat": "-41.39016701612388",
    "lon": "146.3256039619315",
    "rating": "3"
  },
  {
    "id": "13760",
    "lat": "-9.45833749679586",
    "lon": "147.20122058745653",
    "rating": "1"
  },
  {
    "id": "13761",
    "lat": "-29.023940160066715",
    "lon": "134.7643774130232",
    "rating": "3"
  },
  {
    "id": "13762",
    "lat": "-14.937856665056282",
    "lon": "133.07263893126944",
    "rating": "3"
  },
  {
    "id": "13763",
    "lat": "-37.75564625351289",
    "lon": "145.3609521220541",
    "rating": "2"
  },
  {
    "id": "13764",
    "lat": "-38.14073100832095",
    "lon": "144.29447162384562",
    "rating": "1"
  },
  {
    "id": "14191",
    "lat": "-37.95169736436881",
    "lon": "176.96229958535253",
    "rating": "1"
  },
  {
    "id": "15018",
    "lat": "-20.28841866004615",
    "lon": "148.67760086058485",
    "rating": "1"
  },
  {
    "id": "15354",
    "lat": "-37.59678543389177",
    "lon": "144.94278573989803",
    "rating": "2"
  },
  {
    "id": "15355",
    "lat": "-36.43899113138714",
    "lon": "146.24818199872652",
    "rating": "2"
  },
  {
    "id": "15356",
    "lat": "-36.03710536240146",
    "lon": "146.96349495649915",
    "rating": "5"
  },
  {
    "id": "15357",
    "lat": "-35.71339430558236",
    "lon": "147.3213338255928",
    "rating": "2"
  },
  {
    "id": "15358",
    "lat": "-35.22913122838081",
    "lon": "149.15324503183513",
    "rating": "3"
  },
  {
    "id": "15360",
    "lat": "-34.282232286865494",
    "lon": "150.63776457308862",
    "rating": "1"
  },
  {
    "id": "15361",
    "lat": "-32.79853895067995",
    "lon": "151.71776139734646",
    "rating": "2"
  },
  {
    "id": "15362",
    "lat": "-32.21870992175276",
    "lon": "152.32173317668398",
    "rating": "0"
  },
  {
    "id": "15363",
    "lat": "-32.097767507045425",
    "lon": "152.37632685894516",
    "rating": "4"
  },
  {
    "id": "15365",
    "lat": "-31.94136018623288",
    "lon": "152.4715399145471",
    "rating": "2"
  },
  {
    "id": "15366",
    "lat": "-28.86445834653701",
    "lon": "153.49738293880205",
    "rating": "2"
  },
  {
    "id": "15367",
    "lat": "-28.801768609226862",
    "lon": "153.2621156572594",
    "rating": "1"
  },
  {
    "id": "15368",
    "lat": "-28.802661756558276",
    "lon": "153.28473204366585",
    "rating": "1"
  },
  {
    "id": "15369",
    "lat": "-28.598223501150738",
    "lon": "153.2223921417357",
    "rating": "2"
  },
  {
    "id": "15543",
    "lat": "-41.26466226723194",
    "lon": "173.2847979068709",
    "rating": "3"
  },
  {
    "id": "15544",
    "lat": "-43.51342628073539",
    "lon": "172.53794753550181",
    "rating": "2"
  },
  {
    "id": "15545",
    "lat": "-41.29045769918795",
    "lon": "174.0000357627639",
    "rating": "2"
  },
  {
    "id": "16365",
    "lat": "-20.307336337602187",
    "lon": "148.53964948652893",
    "rating": "1"
  },
  {
    "id": "17232",
    "lat": "-19.672145356811804",
    "lon": "147.418335914621",
    "rating": "1"
  },
  {
    "id": "17485",
    "lat": "-41.297881762260566",
    "lon": "174.7753846049204",
    "rating": "1"
  },
  {
    "id": "17507",
    "lat": "-33.58103112490503",
    "lon": "115.84324264526094",
    "rating": "1"
  },
  {
    "id": "17870",
    "lat": "-30.49663703683189",
    "lon": "115.08258616928916",
    "rating": "2"
  },
  {
    "id": "17871",
    "lat": "-30.299171441144566",
    "lon": "115.05023872857737",
    "rating": "1"
  },
  {
    "id": "17872",
    "lat": "-24.788504659443294",
    "lon": "113.76352941995383",
    "rating": "3"
  },
  {
    "id": "17873",
    "lat": "-17.928901428990375",
    "lon": "122.2409567833243",
    "rating": "1"
  },
  {
    "id": "17936",
    "lat": "-42.0707157077556",
    "lon": "171.368423938777",
    "rating": "5"
  },
  {
    "id": "17971",
    "lat": "-41.27772150871855",
    "lon": "174.76171874999804",
    "rating": "0"
  },
  {
    "id": "18113",
    "lat": "-19.262362643564387",
    "lon": "146.70489245655182",
    "rating": "4"
  },
  {
    "id": "18268",
    "lat": "-37.79473712581652",
    "lon": "144.99423956871973",
    "rating": "2"
  },
  {
    "id": "18269",
    "lat": "-37.794665062377874",
    "lon": "144.99349391461712",
    "rating": "0"
  },
  {
    "id": "18381",
    "lat": "-17.099258443211806",
    "lon": "145.7811584472553",
    "rating": "2"
  },
  {
    "id": "18382",
    "lat": "-25.28745921204167",
    "lon": "152.8166356086667",
    "rating": "2"
  },
  {
    "id": "18383",
    "lat": "-44.696713407228096",
    "lon": "169.17235994337108",
    "rating": "2"
  },
  {
    "id": "18767",
    "lat": "-43.43791222101971",
    "lon": "172.63706588745353",
    "rating": "2"
  },
  {
    "id": "19784",
    "lat": "-20.40349894558137",
    "lon": "148.58981752392273",
    "rating": "1"
  },
  {
    "id": "19865",
    "lat": "-42.469544410565284",
    "lon": "171.19000339510376",
    "rating": "4"
  },
  {
    "id": "19947",
    "lat": "-36.85282051195079",
    "lon": "174.75418710711017",
    "rating": "1"
  },
  {
    "id": "19948",
    "lat": "-36.73555424969567",
    "lon": "174.71653157477064",
    "rating": "1"
  },
  {
    "id": "19949",
    "lat": "-34.71264143665985",
    "lon": "172.92317712309134",
    "rating": "1"
  },
  {
    "id": "19950",
    "lat": "-37.39201998692764",
    "lon": "175.83948934081494",
    "rating": "1"
  },
  {
    "id": "19951",
    "lat": "-37.06215038794064",
    "lon": "174.94799816611032",
    "rating": "3"
  },
  {
    "id": "19952",
    "lat": "-36.76264005578198",
    "lon": "175.50093823674786",
    "rating": "2"
  },
  {
    "id": "19953",
    "lat": "-36.83299091307246",
    "lon": "175.70854657892158",
    "rating": "4"
  },
  {
    "id": "19954",
    "lat": "-36.889722751386195",
    "lon": "175.82065218691358",
    "rating": "1"
  },
  {
    "id": "19955",
    "lat": "-36.877180822294584",
    "lon": "175.80051952605302",
    "rating": "4"
  },
  {
    "id": "19956",
    "lat": "-37.62147165798456",
    "lon": "175.59565508368394",
    "rating": "2"
  },
  {
    "id": "19957",
    "lat": "-37.813140186592896",
    "lon": "175.7822939157594",
    "rating": "3"
  },
  {
    "id": "19958",
    "lat": "-37.73032629678148",
    "lon": "175.8582862615642",
    "rating": "3"
  },
  {
    "id": "19959",
    "lat": "-38.144766623141244",
    "lon": "176.25404083731001",
    "rating": "3"
  },
  {
    "id": "19960",
    "lat": "-38.14155388981636",
    "lon": "176.23702490330993",
    "rating": "4"
  },
  {
    "id": "19961",
    "lat": "-37.99713678594948",
    "lon": "176.89739549161732",
    "rating": "2"
  },
  {
    "id": "19962",
    "lat": "-38.005176829823576",
    "lon": "177.28659474851554",
    "rating": "2"
  },
  {
    "id": "19963",
    "lat": "-37.69165020315341",
    "lon": "178.5453232526974",
    "rating": "4"
  },
  {
    "id": "19964",
    "lat": "-39.16745350292405",
    "lon": "174.67148387436382",
    "rating": "3"
  },
  {
    "id": "19965",
    "lat": "-39.22690278896878",
    "lon": "175.73518359666468",
    "rating": "4"
  },
  {
    "id": "19966",
    "lat": "-38.99640474273195",
    "lon": "175.80510878569146",
    "rating": "1"
  },
  {
    "id": "19967",
    "lat": "-35.84331443476993",
    "lon": "174.4867172241726",
    "rating": "4"
  },
  {
    "id": "19968",
    "lat": "-41.265160251636516",
    "lon": "172.8215160370054",
    "rating": "5"
  },
  {
    "id": "19969",
    "lat": "-41.346194356968795",
    "lon": "173.16690409184076",
    "rating": "1"
  },
  {
    "id": "19970",
    "lat": "-41.69406683008921",
    "lon": "172.61698687075682",
    "rating": "4"
  },
  {
    "id": "19971",
    "lat": "-41.80299216807432",
    "lon": "172.84598314761624",
    "rating": "4"
  },
  {
    "id": "19972",
    "lat": "-42.11576321601715",
    "lon": "171.3296713828871",
    "rating": "4"
  },
  {
    "id": "19973",
    "lat": "-43.476736953473804",
    "lon": "170.00991725921546",
    "rating": "1"
  },
  {
    "id": "19974",
    "lat": "-44.700314902246326",
    "lon": "169.1055300235518",
    "rating": "3"
  },
  {
    "id": "19975",
    "lat": "-44.695647596297654",
    "lon": "168.470318555821",
    "rating": "5"
  },
  {
    "id": "19976",
    "lat": "-45.02173482117987",
    "lon": "168.73431229589",
    "rating": "2"
  },
  {
    "id": "19977",
    "lat": "-45.41430735561996",
    "lon": "167.71799647802615",
    "rating": "1"
  },
  {
    "id": "19978",
    "lat": "-45.62591018079982",
    "lon": "167.7014204263203",
    "rating": "4"
  },
  {
    "id": "19979",
    "lat": "-46.41329852770658",
    "lon": "168.35377657409472",
    "rating": "4"
  },
  {
    "id": "19980",
    "lat": "-46.43595086759945",
    "lon": "168.37183320516587",
    "rating": "3"
  },
  {
    "id": "19981",
    "lat": "-43.59079839072683",
    "lon": "172.56809556479618",
    "rating": "3"
  },
  {
    "id": "19982",
    "lat": "-43.777091649532544",
    "lon": "173.01303112503757",
    "rating": "4"
  },
  {
    "id": "19983",
    "lat": "-43.653366667475986",
    "lon": "172.7042015790632",
    "rating": "1"
  },
  {
    "id": "19984",
    "lat": "-43.66140820992858",
    "lon": "172.5479789972",
    "rating": "1"
  },
  {
    "id": "19985",
    "lat": "-43.71204671323046",
    "lon": "171.3821085691266",
    "rating": "3"
  },
  {
    "id": "19986",
    "lat": "-43.48803643479555",
    "lon": "172.1052964925578",
    "rating": "1"
  },
  {
    "id": "19987",
    "lat": "-42.57076729588557",
    "lon": "171.48407542702085",
    "rating": "5"
  },
  {
    "id": "19988",
    "lat": "-42.11972247491793",
    "lon": "171.8692299127397",
    "rating": "1"
  },
  {
    "id": "19989",
    "lat": "-42.642831682972954",
    "lon": "173.1252225637312",
    "rating": "4"
  },
  {
    "id": "19990",
    "lat": "-41.50132759459204",
    "lon": "173.96106863019176",
    "rating": "1"
  },
  {
    "id": "19991",
    "lat": "-41.13773815570736",
    "lon": "174.14388799661904",
    "rating": "5"
  },
  {
    "id": "19992",
    "lat": "-42.35162011841068",
    "lon": "173.67436194411187",
    "rating": "4"
  },
  {
    "id": "19993",
    "lat": "-42.37120138149689",
    "lon": "173.5922863482556",
    "rating": "3"
  },
  {
    "id": "20309",
    "lat": "-38.176624720021486",
    "lon": "176.2484242916213",
    "rating": "3"
  },
  {
    "id": "20577",
    "lat": "-38.08934823352408",
    "lon": "176.2130915522374",
    "rating": "1"
  },
  {
    "id": "20633",
    "lat": "-35.737002642996124",
    "lon": "174.31147778033665",
    "rating": "1"
  },
  {
    "id": "20634",
    "lat": "-40.77357032576273",
    "lon": "175.14414274693297",
    "rating": "2"
  },
  {
    "id": "20635",
    "lat": "-40.87964555524608",
    "lon": "175.06453478336718",
    "rating": "1"
  },
  {
    "id": "20636",
    "lat": "-41.29988680399048",
    "lon": "173.99810993671582",
    "rating": "4"
  },
  {
    "id": "20637",
    "lat": "-43.909263244854706",
    "lon": "171.7401834726273",
    "rating": "3"
  },
  {
    "id": "20638",
    "lat": "-43.92744018631769",
    "lon": "171.70662367341427",
    "rating": "3"
  },
  {
    "id": "20639",
    "lat": "-44.06624221362399",
    "lon": "171.37235605715034",
    "rating": "1"
  },
  {
    "id": "20640",
    "lat": "-44.40374826123894",
    "lon": "171.2483092546406",
    "rating": "1"
  },
  {
    "id": "20641",
    "lat": "-45.88636727057038",
    "lon": "170.50023043155073",
    "rating": "1"
  },
  {
    "id": "20643",
    "lat": "-45.03926720935481",
    "lon": "168.64246809482898",
    "rating": "2"
  },
  {
    "id": "20645",
    "lat": "-44.85037709874288",
    "lon": "168.38828587533354",
    "rating": "2"
  },
  {
    "id": "20646",
    "lat": "-45.01527678642673",
    "lon": "168.73317051832603",
    "rating": "1"
  },
  {
    "id": "20647",
    "lat": "-45.033521968681306",
    "lon": "168.66856146756817",
    "rating": "2"
  },
  {
    "id": "20649",
    "lat": "-43.47831542688299",
    "lon": "170.00978851320792",
    "rating": "1"
  },
  {
    "id": "20650",
    "lat": "-43.463447725885025",
    "lon": "170.02187454702465",
    "rating": "2"
  },
  {
    "id": "20651",
    "lat": "-43.26561228478105",
    "lon": "170.2404423952155",
    "rating": "3"
  },
  {
    "id": "20652",
    "lat": "-43.15150453473886",
    "lon": "170.581533551218",
    "rating": "1"
  },
  {
    "id": "20653",
    "lat": "-42.44526357133786",
    "lon": "171.2166162729233",
    "rating": "2"
  },
  {
    "id": "20654",
    "lat": "-42.09217961218357",
    "lon": "171.3453944921537",
    "rating": "3"
  },
  {
    "id": "20655",
    "lat": "-41.807704649106746",
    "lon": "171.59044647217448",
    "rating": "1"
  },
  {
    "id": "20656",
    "lat": "-41.48573530780121",
    "lon": "173.81826782226557",
    "rating": "4"
  },
  {
    "id": "20657",
    "lat": "-40.219662282473855",
    "lon": "175.42336606978353",
    "rating": "2"
  },
  {
    "id": "20658",
    "lat": "-39.90204491933637",
    "lon": "175.0687994956982",
    "rating": "2"
  },
  {
    "id": "20659",
    "lat": "-38.96602807015674",
    "lon": "175.76694631576532",
    "rating": "2"
  },
  {
    "id": "20660",
    "lat": "-38.989981879340846",
    "lon": "175.81162118911638",
    "rating": "2"
  },
  {
    "id": "20661",
    "lat": "-38.73990405993231",
    "lon": "176.07228899002217",
    "rating": "2"
  },
  {
    "id": "20662",
    "lat": "-36.717812089784104",
    "lon": "174.7117438316515",
    "rating": "2"
  },
  {
    "id": "20663",
    "lat": "-36.623583009774556",
    "lon": "174.66241264345047",
    "rating": "3"
  },
  {
    "id": "20664",
    "lat": "-36.39351708258075",
    "lon": "174.6613075733397",
    "rating": "2"
  },
  {
    "id": "20665",
    "lat": "-36.289120669076986",
    "lon": "174.5221116542986",
    "rating": "2"
  },
  {
    "id": "20711",
    "lat": "-42.12838224268697",
    "lon": "148.07412528990417",
    "rating": "2"
  },
  {
    "id": "20712",
    "lat": "-42.501856757680436",
    "lon": "147.91336441038558",
    "rating": "3"
  },
  {
    "id": "20713",
    "lat": "-42.5100864594207",
    "lon": "147.90784978864494",
    "rating": "3"
  },
  {
    "id": "20714",
    "lat": "-41.44551275586911",
    "lon": "147.13907504079023",
    "rating": "4"
  },
  {
    "id": "20715",
    "lat": "-41.57887157069895",
    "lon": "147.17736089224556",
    "rating": "1"
  },
  {
    "id": "20716",
    "lat": "-41.53159536232966",
    "lon": "147.18693101400552",
    "rating": "1"
  },
  {
    "id": "20717",
    "lat": "-41.92833149303117",
    "lon": "147.49388301366216",
    "rating": "1"
  },
  {
    "id": "21235",
    "lat": "-33.645558948296845",
    "lon": "150.04774832725334",
    "rating": "1"
  },
  {
    "id": "21236",
    "lat": "-33.6455232220828",
    "lon": "150.04798972606693",
    "rating": "2"
  },
  {
    "id": "21237",
    "lat": "-33.61557944368623",
    "lon": "150.27274811268177",
    "rating": "2"
  },
  {
    "id": "21238",
    "lat": "-37.82045455637063",
    "lon": "147.64870816466293",
    "rating": "2"
  },
  {
    "id": "21242",
    "lat": "-44.077762278147524",
    "lon": "171.25905418394848",
    "rating": "1"
  },
  {
    "id": "21244",
    "lat": "-41.54547230838884",
    "lon": "147.2058191299258",
    "rating": "3"
  },
  {
    "id": "21245",
    "lat": "-41.59884427261563",
    "lon": "147.21497619150486",
    "rating": "2"
  },
  {
    "id": "21319",
    "lat": "-35.90620157427164",
    "lon": "174.4482650756666",
    "rating": "2"
  },
  {
    "id": "21320",
    "lat": "-35.979477484566665",
    "lon": "174.43466091154923",
    "rating": "2"
  },
  {
    "id": "21321",
    "lat": "-36.91813935040535",
    "lon": "174.8402109145952",
    "rating": "1"
  },
  {
    "id": "21322",
    "lat": "-37.67355821987898",
    "lon": "175.15549921986658",
    "rating": "2"
  },
  {
    "id": "21323",
    "lat": "-37.65359949041175",
    "lon": "175.15582108494831",
    "rating": "2"
  },
  {
    "id": "21326",
    "lat": "-35.630629384826854",
    "lon": "174.50392627717503",
    "rating": "1"
  },
  {
    "id": "21327",
    "lat": "-35.609837522919655",
    "lon": "174.5241823196546",
    "rating": "1"
  },
  {
    "id": "21328",
    "lat": "-35.56778377535662",
    "lon": "174.50823926927234",
    "rating": "2"
  },
  {
    "id": "21329",
    "lat": "-37.38399842510304",
    "lon": "175.6729938983861",
    "rating": "1"
  },
  {
    "id": "21463",
    "lat": "-41.30688671521952",
    "lon": "173.9820327758746",
    "rating": "3"
  },
  {
    "id": "21464",
    "lat": "-41.510396757369996",
    "lon": "173.9194407463089",
    "rating": "3"
  },
  {
    "id": "21465",
    "lat": "-41.80076276585987",
    "lon": "172.83827447889163",
    "rating": "4"
  },
  {
    "id": "21466",
    "lat": "-45.02672647818259",
    "lon": "168.73417282102452",
    "rating": "3"
  },
  {
    "id": "21467",
    "lat": "-43.39374000342119",
    "lon": "170.17904663084173",
    "rating": "3"
  },
  {
    "id": "21468",
    "lat": "-46.59417446718566",
    "lon": "168.31731462477538",
    "rating": "3"
  },
  {
    "id": "21500",
    "lat": "-36.368509749475706",
    "lon": "146.67913722988874",
    "rating": "2"
  },
  {
    "id": "21502",
    "lat": "-41.105884293818306",
    "lon": "174.88226795195934",
    "rating": "3"
  },
  {
    "id": "21503",
    "lat": "-41.1091017002143",
    "lon": "174.91807007788674",
    "rating": "2"
  },
  {
    "id": "21504",
    "lat": "-41.10544774914563",
    "lon": "174.8679664134787",
    "rating": "4"
  },
  {
    "id": "21505",
    "lat": "-40.170277707933465",
    "lon": "175.38957023619037",
    "rating": "1"
  },
  {
    "id": "21506",
    "lat": "-39.57828469233985",
    "lon": "176.91355848311525",
    "rating": "2"
  },
  {
    "id": "21507",
    "lat": "-39.63189862845975",
    "lon": "176.8642380237632",
    "rating": "2"
  },
  {
    "id": "21508",
    "lat": "-39.936801914730964",
    "lon": "176.59299159051932",
    "rating": "2"
  },
  {
    "id": "21509",
    "lat": "-37.192860326491235",
    "lon": "174.98477125169845",
    "rating": "1"
  },
  {
    "id": "21603",
    "lat": "-43.47528300868364",
    "lon": "172.55819821357488",
    "rating": "4"
  },
  {
    "id": "21604",
    "lat": "-43.46417581839698",
    "lon": "172.58482718467678",
    "rating": "3"
  },
  {
    "id": "21736",
    "lat": "-36.90887493034214",
    "lon": "174.64711332320474",
    "rating": "2"
  },
  {
    "id": "21737",
    "lat": "-36.956986185087146",
    "lon": "174.47952890395655",
    "rating": "1"
  },
  {
    "id": "21899",
    "lat": "-33.943559879614334",
    "lon": "151.07684755326122",
    "rating": "1"
  },
  {
    "id": "21900",
    "lat": "-33.81600024869369",
    "lon": "150.012573838252",
    "rating": "1"
  },
  {
    "id": "22051",
    "lat": "-33.25513863046681",
    "lon": "151.40303635598835",
    "rating": "1"
  },
  {
    "id": "22052",
    "lat": "-30.937986909174988",
    "lon": "152.94233465193608",
    "rating": "1"
  },
  {
    "id": "22121",
    "lat": "-41.541360931086885",
    "lon": "147.20248246193168",
    "rating": "1"
  },
  {
    "id": "22122",
    "lat": "-41.44135883685506",
    "lon": "147.16283941268517",
    "rating": "2"
  },
  {
    "id": "22123",
    "lat": "-41.38883488698081",
    "lon": "147.30183684825457",
    "rating": "2"
  },
  {
    "id": "22124",
    "lat": "-41.38883488698081",
    "lon": "147.30183684825457",
    "rating": "2"
  },
  {
    "id": "22125",
    "lat": "-41.280493086342204",
    "lon": "148.0099292993452",
    "rating": "4"
  },
  {
    "id": "22126",
    "lat": "-41.33054866773007",
    "lon": "148.24787342547205",
    "rating": "3"
  },
  {
    "id": "22127",
    "lat": "-41.87834028168434",
    "lon": "148.30368483065894",
    "rating": "2"
  },
  {
    "id": "22128",
    "lat": "-42.554502594490714",
    "lon": "147.87353360653424",
    "rating": "1"
  },
  {
    "id": "22129",
    "lat": "-42.554502594490714",
    "lon": "147.87353360653424",
    "rating": "1"
  },
  {
    "id": "22130",
    "lat": "-42.87115183813786",
    "lon": "147.32262933254304",
    "rating": "2"
  },
  {
    "id": "22131",
    "lat": "-42.69389781609083",
    "lon": "146.93770015238232",
    "rating": "4"
  },
  {
    "id": "22132",
    "lat": "-42.70846072474067",
    "lon": "146.89645850656697",
    "rating": "1"
  },
  {
    "id": "22133",
    "lat": "-42.68198160242796",
    "lon": "146.7036613225784",
    "rating": "2"
  },
  {
    "id": "22134",
    "lat": "-42.68575939215097",
    "lon": "146.59306848047154",
    "rating": "2"
  },
  {
    "id": "22135",
    "lat": "-38.19785852769411",
    "lon": "144.34226596353247",
    "rating": "3"
  },
  {
    "id": "22136",
    "lat": "-38.33911032988426",
    "lon": "144.30694663522323",
    "rating": "1"
  },
  {
    "id": "22137",
    "lat": "-38.33911032988426",
    "lon": "144.30694663522323",
    "rating": "1"
  },
  {
    "id": "22138",
    "lat": "-38.46527026959188",
    "lon": "144.09659707544358",
    "rating": "3"
  },
  {
    "id": "22139",
    "lat": "-38.46836999539094",
    "lon": "144.0868767499692",
    "rating": "1"
  },
  {
    "id": "22140",
    "lat": "-38.75840427480286",
    "lon": "143.67051208016915",
    "rating": "2"
  },
  {
    "id": "22141",
    "lat": "-44.69907756897874",
    "lon": "169.12697160240134",
    "rating": "1"
  },
  {
    "id": "22142",
    "lat": "-44.692457672841414",
    "lon": "169.14619767661392",
    "rating": "1"
  },
  {
    "id": "22143",
    "lat": "-44.696225310206245",
    "lon": "169.17133533951056",
    "rating": "1"
  },
  {
    "id": "22144",
    "lat": "-44.679688593174546",
    "lon": "169.19019663330857",
    "rating": "2"
  },
  {
    "id": "22145",
    "lat": "-44.654203046349345",
    "lon": "169.21881043906478",
    "rating": "2"
  },
  {
    "id": "22146",
    "lat": "-44.98073293451259",
    "lon": "168.85496342176344",
    "rating": "2"
  },
  {
    "id": "22147",
    "lat": "-45.04113216194788",
    "lon": "169.22294104093683",
    "rating": "2"
  },
  {
    "id": "22148",
    "lat": "-45.03855456914366",
    "lon": "169.22314488882404",
    "rating": "2"
  },
  {
    "id": "22149",
    "lat": "-45.032970650053464",
    "lon": "169.19331872457553",
    "rating": "2"
  },
  {
    "id": "22150",
    "lat": "-44.74893506596224",
    "lon": "169.26921451086565",
    "rating": "3"
  },
  {
    "id": "22151",
    "lat": "-44.84171867022429",
    "lon": "169.40100753301743",
    "rating": "2"
  },
  {
    "id": "22152",
    "lat": "-44.836819321114184",
    "lon": "169.41137158865533",
    "rating": "2"
  },
  {
    "id": "22153",
    "lat": "-44.4884403466694",
    "lon": "169.9684664010615",
    "rating": "3"
  },
  {
    "id": "22154",
    "lat": "-44.734229267069274",
    "lon": "170.47081196305868",
    "rating": "4"
  },
  {
    "id": "22155",
    "lat": "-45.1025184364658",
    "lon": "170.95363104341445",
    "rating": "3"
  },
  {
    "id": "22156",
    "lat": "-45.48143223730708",
    "lon": "170.71390593049358",
    "rating": "4"
  },
  {
    "id": "22157",
    "lat": "-45.48590789947004",
    "lon": "170.71373426911723",
    "rating": "2"
  },
  {
    "id": "22158",
    "lat": "-45.35187542377078",
    "lon": "170.82349026199532",
    "rating": "3"
  },
  {
    "id": "22159",
    "lat": "-45.88960182636091",
    "lon": "170.4981704949988",
    "rating": "1"
  },
  {
    "id": "22160",
    "lat": "-45.26027607159918",
    "lon": "169.38917362686323",
    "rating": "2"
  },
  {
    "id": "22161",
    "lat": "-45.47810628916664",
    "lon": "169.31219422814223",
    "rating": "3"
  },
  {
    "id": "22162",
    "lat": "-45.91249550769255",
    "lon": "169.68404763934436",
    "rating": "2"
  },
  {
    "id": "22163",
    "lat": "-46.11250938518917",
    "lon": "169.96803992984192",
    "rating": "2"
  },
  {
    "id": "22164",
    "lat": "-44.003034226667545",
    "lon": "170.47235959765345",
    "rating": "1"
  },
  {
    "id": "22165",
    "lat": "-44.18757139438799",
    "lon": "170.12385481593068",
    "rating": "2"
  },
  {
    "id": "22166",
    "lat": "-44.1880599130211",
    "lon": "170.12421959635427",
    "rating": "3"
  },
  {
    "id": "22167",
    "lat": "-43.735454113272155",
    "lon": "170.10135644671877",
    "rating": "2"
  },
  {
    "id": "22168",
    "lat": "-44.260681004208585",
    "lon": "170.10509008164738",
    "rating": "3"
  },
  {
    "id": "22169",
    "lat": "-44.06659056561344",
    "lon": "171.36759513610863",
    "rating": "2"
  },
  {
    "id": "22170",
    "lat": "-43.89853232142587",
    "lon": "171.75568664069735",
    "rating": "2"
  },
  {
    "id": "22171",
    "lat": "-43.54584797688851",
    "lon": "172.50573956961958",
    "rating": "1"
  },
  {
    "id": "22172",
    "lat": "-41.103029016769135",
    "lon": "173.01128232474537",
    "rating": "2"
  },
  {
    "id": "22173",
    "lat": "-39.07811084536729",
    "lon": "175.80874049657314",
    "rating": "3"
  },
  {
    "id": "22174",
    "lat": "-35.29505964140497",
    "lon": "174.09861767285284",
    "rating": "1"
  },
  {
    "id": "22175",
    "lat": "-35.28505006765071",
    "lon": "174.09677231304596",
    "rating": "4"
  },
  {
    "id": "22176",
    "lat": "-35.280233121296746",
    "lon": "174.08123695843813",
    "rating": "2"
  },
  {
    "id": "22177",
    "lat": "-35.302020951056015",
    "lon": "173.96180355541853",
    "rating": "2"
  },
  {
    "id": "22178",
    "lat": "-35.303658304193455",
    "lon": "173.96289789669828",
    "rating": "2"
  },
  {
    "id": "22179",
    "lat": "-35.302520040816894",
    "lon": "173.95884239666998",
    "rating": "3"
  },
  {
    "id": "22180",
    "lat": "-35.25480365542553",
    "lon": "173.93305027477882",
    "rating": "2"
  },
  {
    "id": "22181",
    "lat": "-35.230277643784994",
    "lon": "173.94669735425597",
    "rating": "3"
  },
  {
    "id": "22182",
    "lat": "-35.171556854633074",
    "lon": "173.15593385689394",
    "rating": "2"
  },
  {
    "id": "22345",
    "lat": "-32.585295406105644",
    "lon": "115.65899634359629",
    "rating": "1"
  },
  {
    "id": "22346",
    "lat": "-33.03458892154461",
    "lon": "115.73388361929935",
    "rating": "1"
  },
  {
    "id": "22347",
    "lat": "-33.33551181518792",
    "lon": "115.67152762412273",
    "rating": "1"
  },
  {
    "id": "22348",
    "lat": "-33.66547846883796",
    "lon": "115.3552200794243",
    "rating": "1"
  },
  {
    "id": "22349",
    "lat": "-33.615628584305945",
    "lon": "115.10149383545159",
    "rating": "1"
  },
  {
    "id": "22350",
    "lat": "-33.847776600734214",
    "lon": "115.1040258407548",
    "rating": "1"
  },
  {
    "id": "22351",
    "lat": "-33.698823626886515",
    "lon": "115.1893737316014",
    "rating": "1"
  },
  {
    "id": "22352",
    "lat": "-33.94774746833834",
    "lon": "115.07424259184812",
    "rating": "1"
  },
  {
    "id": "22353",
    "lat": "-34.270374583120635",
    "lon": "115.09888136386222",
    "rating": "1"
  },
  {
    "id": "22354",
    "lat": "-34.17939370814449",
    "lon": "115.0801917314406",
    "rating": "2"
  },
  {
    "id": "22705",
    "lat": "-36.88754962248323",
    "lon": "174.79957813022475",
    "rating": "2"
  },
  {
    "id": "22706",
    "lat": "-45.78135171152778",
    "lon": "167.6690219141838",
    "rating": "4"
  },
  {
    "id": "22993",
    "lat": "-43.295304521990985",
    "lon": "172.68382215499156",
    "rating": "2"
  },
  {
    "id": "22994",
    "lat": "-43.065732700689274",
    "lon": "172.7574863433624",
    "rating": "1"
  },
  {
    "id": "22995",
    "lat": "-45.41839109722428",
    "lon": "167.73304367063633",
    "rating": "0"
  },
  {
    "id": "22996",
    "lat": "-45.41826683835047",
    "lon": "167.73286664484453",
    "rating": "0"
  },
  {
    "id": "23095",
    "lat": "-38.67282468261818",
    "lon": "176.06926345825192",
    "rating": "3"
  },
  {
    "id": "23096",
    "lat": "-39.394297362328835",
    "lon": "176.87602901458453",
    "rating": "2"
  },
  {
    "id": "23097",
    "lat": "-39.04213176050453",
    "lon": "177.73914241790405",
    "rating": "3"
  },
  {
    "id": "23098",
    "lat": "-38.67729748206175",
    "lon": "178.04815435409472",
    "rating": "1"
  },
  {
    "id": "23197",
    "lat": "-27.47455589989462",
    "lon": "153.11730051042963",
    "rating": "2"
  },
  {
    "id": "23198",
    "lat": "-28.53588300828243",
    "lon": "153.54261302950604",
    "rating": "1"
  },
  {
    "id": "23315",
    "lat": "-45.7417825727077",
    "lon": "168.44172620772667",
    "rating": "4"
  },
  {
    "id": "23360",
    "lat": "-29.023221947107814",
    "lon": "134.75680732726272",
    "rating": "4"
  },
  {
    "id": "23641",
    "lat": "-46.09506008850711",
    "lon": "168.95407104492017",
    "rating": "0"
  },
  {
    "id": "24303",
    "lat": "-36.41088272933655",
    "lon": "174.6586897373169",
    "rating": "1"
  },
  {
    "id": "24428",
    "lat": "-33.97251722384037",
    "lon": "115.08394145964257",
    "rating": "1"
  },
  {
    "id": "24429",
    "lat": "-33.999894824368496",
    "lon": "115.7610275745123",
    "rating": "3"
  },
  {
    "id": "24531",
    "lat": "-37.2267508554754",
    "lon": "175.0265037417282",
    "rating": "2"
  }
]